{
  "name": "USERNAME",
  "firstname": "USER_FIRSTNAME",
  "bio": "Bio",
  "lastname": "Last",
  "topics": "Topics",
  "country": "au",
  "organization": "Org",
  "password": "SUPERSECRETPASSWORD",
  "email": "EMAIL_EXAMPLE@example.com"
}
